<svg class="{{.Class}}"
     viewBox="0 0 24 24"
     fill-rule="evenodd"
     clip-rule="evenodd"
     stroke-linejoin="round"
     stroke-miterlimit="2"
     fill="currentColor"
     transform="rotate(-90 0 0)"
>
    <path d="M12 10.939l-4.95 4.95-1.414-1.414L12 8.111l6.364 6.364-1.414 1.414-4.95-4.95z" fill-rule="nonzero"/>
</svg>
