{
  "swagger": "2.0",
  "info": {
    "title": "txlog.proto",
    "version": "version not set"
  },
  "tags": [
    {
      "name": "TXLogService"
    }
  ],
  "consumes": [
    "application/json"
  ],
  "produces": [
    "application/json"
  ],
  "paths": {},
  "definitions": {
    "ListRecordsRequestFilter": {
      "type": "object",
      "properties": {
        "period": {
          "$ref": "#/definitions/ListRecordsRequestPeriod"
        },
        "transaction_id": {
          "type": "string"
        },
        "service_name": {
          "type": "string"
        },
        "grant_hash": {
          "type": "string"
        },
        "peer_id": {
          "type": "string"
        }
      }
    },
    "ListRecordsRequestPeriod": {
      "type": "object",
      "properties": {
        "start": {
          "type": "string",
          "format": "uint64"
        },
        "end": {
          "type": "string",
          "format": "uint64"
        }
      }
    },
    "TransactionLogRecordDestinationDelegatedDestination": {
      "type": "object",
      "properties": {
        "service_peer_id": {
          "type": "string"
        },
        "delegator_peer_id": {
          "type": "string"
        }
      }
    },
    "TransactionLogRecordDestinationDestination": {
      "type": "object",
      "properties": {
        "service_peer_id": {
          "type": "string"
        }
      }
    },
    "TransactionLogRecordDirection": {
      "type": "string",
      "enum": [
        "DIRECTION_UNSPECIFIED",
        "DIRECTION_IN",
        "DIRECTION_OUT"
      ],
      "default": "DIRECTION_UNSPECIFIED"
    },
    "TransactionLogRecordSourceDelegatedSource": {
      "type": "object",
      "properties": {
        "outway_peer_id": {
          "type": "string"
        },
        "delegator_peer_id": {
          "type": "string"
        }
      }
    },
    "TransactionLogRecordSourceSource": {
      "type": "object",
      "properties": {
        "outway_peer_id": {
          "type": "string"
        }
      }
    },
    "protobufAny": {
      "type": "object",
      "properties": {
        "@type": {
          "type": "string"
        }
      },
      "additionalProperties": {}
    },
    "rpcStatus": {
      "type": "object",
      "properties": {
        "code": {
          "type": "integer",
          "format": "int32"
        },
        "message": {
          "type": "string"
        },
        "details": {
          "type": "array",
          "items": {
            "type": "object",
            "$ref": "#/definitions/protobufAny"
          }
        }
      }
    },
    "txlogCreateRecordsResponse": {
      "type": "object"
    },
    "txlogListRecordsResponse": {
      "type": "object",
      "properties": {
        "records": {
          "type": "array",
          "items": {
            "type": "object",
            "$ref": "#/definitions/txlogTransactionLogRecord"
          }
        }
      }
    },
    "txlogPagination": {
      "type": "object",
      "properties": {
        "start_id": {
          "type": "string",
          "format": "uint64"
        },
        "limit": {
          "type": "integer",
          "format": "int64"
        },
        "order": {
          "$ref": "#/definitions/txlogSortOrder"
        }
      }
    },
    "txlogSortOrder": {
      "type": "string",
      "enum": [
        "SORT_ORDER_UNSPECIFIED",
        "SORT_ORDER_ASCENDING",
        "SORT_ORDER_DESCENDING"
      ],
      "default": "SORT_ORDER_UNSPECIFIED"
    },
    "txlogTransactionLogRecord": {
      "type": "object",
      "properties": {
        "id": {
          "type": "string",
          "format": "uint64"
        },
        "transaction_id": {
          "type": "string"
        },
        "direction": {
          "$ref": "#/definitions/TransactionLogRecordDirection"
        },
        "grant_hash": {
          "type": "string"
        },
        "service_name": {
          "type": "string"
        },
        "source": {
          "$ref": "#/definitions/txlogTransactionLogRecordSource"
        },
        "destination": {
          "$ref": "#/definitions/txlogTransactionLogRecordDestination"
        },
        "created_at": {
          "type": "string",
          "format": "int64"
        }
      }
    },
    "txlogTransactionLogRecordDestination": {
      "type": "object",
      "properties": {
        "destination": {
          "$ref": "#/definitions/TransactionLogRecordDestinationDestination"
        },
        "delegated_destination": {
          "$ref": "#/definitions/TransactionLogRecordDestinationDelegatedDestination"
        }
      }
    },
    "txlogTransactionLogRecordSource": {
      "type": "object",
      "properties": {
        "source": {
          "$ref": "#/definitions/TransactionLogRecordSourceSource"
        },
        "delegated_source": {
          "$ref": "#/definitions/TransactionLogRecordSourceDelegatedSource"
        }
      }
    }
  }
}
